﻿#2021-07-09 09:06:24.csv;;;;;;;;;;;;;;;;;;;;;;;;;;;;;;;;;;;;;;;;;;;;
#5;;;;;;;;;;;;;;;;;;;;;;;;;;;;;;;;;;;;;;;;;;;;
#;;;;;;;;;;;;;;;;;;;;;;;;;;;;;;;;;;;;;;;;;;;;
# TIMESTAMP1; TIMESTAMP2; GPS_STATUS; LATITUDE; LONGITUDE; ALTITUDE; ROLL; PITCH; YAW; TEMPERATURE_P ;CO;  NO; NO2 ; O3; SO2;VOC; HUMIDITY; PRESSURE; TEMP_H; TEMP_EXT; PM1; PM2_5; PM10; Bin0;Bin1;Bin2;Bin3;Bin4;Bin5;Bin6;Bin7;Bin8;Bin9;Bin10;Bin11; Bin12;Bin13;Bin14;Bin15;Bin1MToF;Bin3MToF;Bin5MToF;Bin7MToF; PM_SampleFlowRate; PM_SamplePeriod
0.092656;1625821584;1;41.9481415;12.5334341;91.52;-0.031026457;-0.013327752;1.76299632;31.6200008;0;0;0;0;0;1892.81006;47.9199982;1024.55005;30.6700001;28.8196297;1.52096236;2.19182038;2.24518514;1.65006387;0.721902907;0.515644968;0.206257984;0.206257984;0.103128992;0;0;0;0;0;0;0;0;0;0;5.33333349;6.66666651;7.66666651;0;4.83890343;2.00388265
2.115283;1625821586;1;41.9481405;12.5334329;91.46;-0.86395067;-0.437419504;1.8921442;31.6200008;0;0;0.200000003;0.134897605;0;1936.56006;47.9199982;1024.55005;30.6700001;28.8196297;1.38033545;2.49632192;5.02135897;0.829999983;0.933750033;0.518750012;0.311250001;0.103749998;0.207499996;0.103749998;0;0.103749998;0;0;0;0;0;0;0;5.33333349;6.33333349;10;0;4.80988789;2.0039041
4.138113;1625821588;1;41.9481351;12.5334334;91.39;0.109052271;0.001804074;1.61155021;31.6399994;0;0.200000003;0;0;0;1892.81006;47.9199982;1024.56006;30.6700001;28.7821293;1.60917258;2.24719167;2.3268218;2.82836103;0.314262331;0.419016421;0.104754105;0.20950821;0.20950821;0;0;0;0;0;0;0;0;0;0;6.33333349;6.33333349;6.66666651;0;4.76368189;2.00394678
6.159049;1625821590;1;41.9481558;12.5334346;91.59;0.093168557;0.043974258;1.4931649;31.6399994;0;0;0.200000003;0.133900836;0;1892.81006;47.9199982;1024.56006;30.6700001;28.7446251;1.3841598;2.22260237;27.8285027;1.58541501;0.634166002;0.422777355;0.317083001;0;0.211388677;0.105694339;0;0;0;0;0.105694339;0;0;0;0;5.66666651;6.33333349;8;0;4.72316599;2.00315738
8.181902;1625821592;1;41.948185;12.5334539;91.86;0.082313672;0.091071837;1.5847162;31.6700001;0;0;0;0;0;1892.81006;48.4500008;1025.06995;30.7000008;28.7633781;1.50170052;2.95622468;5.96626759;1.86635959;0.414746583;0.622119844;0.311059922;0;0.103686646;0.414746583;0;0.103686646;0;0;0;0;0;0;0;3.66666675;7.33333349;7.66666651;0;4.81277609;2.00392532
10.206315;1625821594;1;41.9482096;12.5334865;91.84;0.110800743;0.076820262;2.1764071;31.6700001;0;0;0.200000003;0.134565353;0.200000003;1936.56006;48.4500008;1025.06995;30.7000008;28.8196297;1.28923965;2.27118397;4.79231453;1.46706641;0.419161826;0.523952305;0.314371377;0.104790457;0.104790457;0.104790457;0;0.104790457;0;0;0;0;0;0;0;6;6;7.66666651;0;4.7619791;2.003968
12.229283;1625821596;1;41.9482157;12.5335392;91.7;0.083439559;0.06138669;2.59796524;31.6499996;0;0;0;0;0.200000003;1892.81006;48.4500008;1024.55005;30.7000008;28.8383808;1.34914291;2.14640355;2.21615052;1.05076683;0.735536754;0.525383413;0.210153356;0.420306712;0.105076678;0;0;0;0;0;0;0;0;0;0;5.33333349;7;7;0;4.74728966;2.00469327
14.252523;1625821598;1;41.9482091;12.5336154;91.44;0.018366545;0.039104398;2.54822445;31.6499996;0;0;0.200000003;0.134980679;0.200000003;1850.15002;48.4500008;1024.55005;30.7000008;28.8196297;1.2167114;2.28981113;2.75284243;1.99119282;0.104799621;0.419198483;0.209599242;0.209599242;0.314398855;0.209599242;0;0;0;0;0;0;0;0;0;4.33333349;6.33333349;9.33333302;0;4.76024532;2.00452256
16.274543;1625821600;1;41.9481979;12.5336915;91.4;0.034898441;0.002677616;2.14603186;31.6499996;0;0.200000003;0;0;0.200000003;1936.56006;48.25;1024.54004;30.7299995;28.8383808;1.63693047;2.69391751;5.11910152;1.80337596;0.954728484;0.318242818;0.318242818;0.424323767;0.212161884;0;0;0.106080942;0;0;0;0;0;0;0;5.66666651;6.33333349;7.66666651;0;4.70284796;2.00447989
18.296603;1625821602;1;41.9482146;12.5337559;91.4;0.085726135;0.003641063;1.43086779;31.6700001;0;0;0;0.134980679;0.200000003;1936.56006;48.25;1024.54004;30.7299995;28.8196297;1.2009784;2.37247419;3.5049336;1.38012826;0.318491131;0.530818522;0.318491131;0;0.212327421;0.212327421;0.10616371;0;0;0;0;0;0;0;0;5.33333349;6;7.66666651;11.666667;4.69908142;2.00452256
20.319496;1625821604;1;41.9482225;12.5337696;91.4;0.115808956;-0.005974734;1.20988536;31.6700001;0;0;0;0.134066969;0;1850.15002;48.25;1024.54004;30.7299995;28.7633781;1.69805098;2.51720428;2.61940527;2.52078652;0.420131087;0.525163889;0.420131087;0;0.315098315;0;0;0;0;0;0;0;0;0;0;4.33333349;6.33333349;7.33333349;0;4.75089169;2.00401068
22.341904;1625821606;1;41.9482354;12.5337774;91.18;0.123316512;-0.006863996;0.964834094;31.6800003;0;0;0.200000003;0.134233087;0;1892.81006;48.25;1024.55005;30.7299995;28.7633781;1.50711465;2.59452367;5.1189065;1.78129745;0.419128805;0.628693223;0.419128805;0.104782201;0.104782201;0.104782201;0;0.104782201;0;0;0;0;0;0;0;5;6.33333349;9;0;4.76189804;2.00415993
24.365074;1625821608;1;41.9482861;12.5337964;91.22;0.102564082;0.023501081;0.748942614;31.6800003;0;0;0;0;0;1892.81006;48.25;1024.55005;30.7299995;28.7446251;1.32476044;2.7822094;39.2445679;1.67296302;0.418240756;0.418240756;0.522800922;0.104560189;0;0.104560189;0.104560189;0.209120378;0.104560189;0;0.104560189;0;0;0;0;5;6.66666651;0;9.66666698;4.77226305;2.00405335
26.389029;1625821610;1;41.9483421;12.5338332;92.26;0.06489268;0.112026341;0.708878517;31.7000008;0.200000003;0;0.200000003;0.134482279;0;1892.81006;47.2299995;1024.56006;30.7299995;28.7258778;0.927118599;1.98871911;2.95222378;1.14306962;0.415661693;0.103915423;0.415661693;0.415661693;0.207830846;0.103915423;0.103915423;0;0;0;0;0;0;0;0;4.66666651;6.66666651;8;8.33333302;4.80141354;2.00424528
28.412533;1625821612;1;41.948441;12.5338978;92.93;0.038772237;0.12277475;0.68028456;31.7000008;0.200000003;0.200000003;0;0;0;1892.81006;47.2299995;1024.56006;30.7299995;28.7446251;1.15940738;1.76319385;40.565834;1.60232306;0.534107685;0.320464611;0;0;0;0.106821537;0.106821537;0;0;0;0;0.106821537;0;0;0;7;0;0;11;4.67113733;2.00409603
30.436547;1625821614;1;41.9485551;12.533954;93.5;0.028542129;0.120065831;0.629310608;31.7000008;0.200000003;0;0.200000003;0.134565353;0;1936.56006;47.2299995;1024.56006;30.7299995;28.7446251;1.75663126;3.0504508;5.68346405;1.08037066;1.18840778;0.648222446;0.432148278;0.108037069;0.216074139;0.108037069;0;0.108037069;0;0;0;0;0;0;0;5.66666651;6;6.66666651;0;4.6188283;2.00398922
32.458482;1625821616;1;41.9486744;12.5340006;94.31;0.044598557;0.093502022;0.602460444;31.7000008;0.200000003;0.200000003;0.400000006;0;0;1892.81006;47.2299995;1024.56006;30.7299995;28.7446251;1.75281727;2.86696625;3.77386522;1.16880071;0.956291497;0.850036919;0.318763852;0.106254615;0;0.106254615;0.106254615;0;0;0;0;0;0;0;0;4.66666651;6;0;7.66666651;4.69611073;2.00407457
34.480664;1625821618;1;41.9487682;12.5340499;94.58;0.056018718;0.067450546;0.534669638;31.7000008;0.200000003;0;0.200000003;0;0;1892.81006;47;1024.56006;30.7399998;28.7446251;1.6033839;2.382092;2.59470272;1.5491538;0.826215386;0.61966151;0.206553847;0;0.103276923;0.103276923;0;0;0;0;0;0;0;0;0;4;5.66666651;6.33333349;0;4.83166361;2.00401068
36.502803;1625821621;1;41.9488901;12.5340968;94.49;0.047979225;0.012894314;0.480799943;31.7000008;0.200000003;0;0.400000006;0;0;1892.81006;47;1024.54004;30.7399998;28.7633781;1.67928803;3.18422723;31.1635151;1.85353112;1.0297395;0.308921874;0.308921874;0.102973953;0.51486975;0.102973953;0.102973953;0.102973953;0;0;0.102973953;0;0;0;0;5;6;7;9;4.84593105;2.00398922
38.524938;1625821623;1;41.9490003;12.5341346;94.46;0.062881939;0.034554221;0.379474938;31.7000008;0;0;0.200000003;0;0;1936.56006;47;1024.54004;30.7399998;28.7633781;1.42742002;2.02320218;2.05008292;1.7304616;0.508959293;0.508959293;0.305375576;0.203583717;0;0;0;0;0;0;0;0;0;0;0;4.33333349;7.33333349;0;0;4.90199757;2.00407457
40.5485;1625821625;1;41.9491194;12.5341409;94.71;0.056348223;0.031963043;0.30243355;31.7099991;0;0.200000003;0.400000006;0;0;1892.81006;47;1024;30.7399998;28.7821293;1.93312716;2.83815837;3.06255698;2.25517559;0.820063889;0.717555881;0.102507986;0.205015972;0.102507986;0.102507986;0;0;0;0;0;0;0;0;0;5.33333349;5.66666651;7.66666651;0;4.86769962;2.00409603
42.571938;1625821627;1;41.9492393;12.5342037;94.99;0.069800213;0.041887172;0.321265846;31.7099991;0.200000003;0.200000003;0.200000003;0;0;1892.81006;47;1024;30.7399998;28.7633781;1.05677962;2.37279415;4.95762634;1.12689745;0.307335645;0.40978089;0.307335645;0.204890445;0.512226105;0.102445222;0;0.102445222;0;0;0;0;0;0;0;5;6.66666651;7;0;4.87078571;2.00405335
44.593962;1625821629;1;41.9493724;12.5342299;95.35;0.05880994;0.038076755;0.211970121;31.7099991;0.200000003;0.200000003;0.400000006;0;0.200000003;1892.81006;46.2200012;1024.54004;30.7399998;28.7821293;1.43612838;2.21046185;4.49701881;1.60250735;1.10172379;0.10015671;0.300470114;0;0.300470114;0;0;0.10015671;0;0;0;0;0;0;0;4.33333349;5.33333349;7;0;4.98218584;2.00401068
46.615684;1625821631;1;41.9494974;12.5342983;95.74;0.06217102;0.028817173;0.124955207;31.7099991;0;0;0.200000003;0;0.200000003;1936.56006;46.2200012;1024.54004;30.7399998;28.7633781;1.60759449;3.72903967;24.1808109;1.90486526;0.701792419;0.401024252;0.501280308;0.100256063;0.401024252;0.300768197;0.200512126;0.100256063;0.100256063;0.100256063;0;0;0;0;0;5;5.66666651;7.33333349;8;4.97703648;2.00409603
48.637734;1625821633;1;41.9496221;12.5343385;95.91;0.071742073;0.024572538;0.070082761;31.7099991;0;0;0.400000006;0;0.200000003;1936.56006;46.2200012;1024.01001;30.7399998;28.7821293;2.32699418;8.39319324;131.301239;1.50521684;0.70243454;1.3045212;0.70243454;0.501738966;0.802782297;1.50521684;0.401391149;0.401391149;0.100347787;0.100347787;0.100347787;0.100347787;0;0.100347787;0;5;6;7.33333349;9.33333302;4.97243452;2.00411725
50.659593;1625821635;1;41.949743;12.5343956;96.1;0.060972087;0.014478449;0.003414332;31.7000008;0;0;0.200000003;0;0.200000003;1892.81006;46.2200012;1024.01001;30.7399998;28.7821293;1.33318329;5.01757622;41.5677643;0.691968918;0.790821612;0.4942635;0.395410806;0.395410806;0.395410806;0.988527;0.395410806;0;0.197705403;0.197705403;0;0;0;0;0;4.33333349;6.33333349;6.33333349;8.33333302;5.04753208;2.00415993
52.681483;1625821637;1;41.9498526;12.5344379;96.67;0.062221207;0.013532735;-0.052831058;31.7000008;0;0;0;0;0.200000003;1936.56006;46.2200012;1024.01001;30.7299995;28.8008785;1.68130171;4.55245304;63.4511261;1.67067182;0.884473324;0.491374075;0.294824451;0.196549624;0.491374075;0.393099248;0.393099248;0.196549624;0.098274812;0.098274812;0;0;0.098274812;0;0;4.66666651;5.33333349;6.66666651;8.66666698;5.07737494;2.00409603
54.706535;1625821639;1;41.9499951;12.5344989;96.8;0.049613569;0.010921621;-0.125263676;31.7099991;0;0;0.200000003;0.135312945;0.200000003;1936.56006;47.0299988;1024.02002;30.7299995;28.8196297;2.24567175;7.13521671;28.934269;1.95530796;0.879888594;0.97765398;0.586592376;0.195530787;0.586592376;0.879888594;0.586592376;0.48882699;0.097765394;0;0;0;0;0;0;4.66666651;5.33333349;6.66666651;8.33333302;5.10361385;2.00418139
56.727813;1625821641;1;41.9501119;12.5345474;96.29;0.064331234;0.011857557;-0.212701693;31.7099991;0;0;0;0;0;1936.56006;47.0299988;1024.02002;30.7299995;28.8008785;2.12018108;6.11513138;89.5378113;1.05823338;1.05823338;1.15443635;0.384812117;0.288609087;0.673421204;0.481015146;0.384812117;0.288609087;0.288609087;0;0.096203029;0.096203029;0;0;0;4.33333349;6;6;7.66666651;5.18671894;2.00409603
58.749596;1625821643;1;41.9501986;12.5346226;95.87;0.074256852;-0.012823467;-0.243938029;31.7000008;0;0.200000003;0.200000003;0.133983895;0;1892.81006;47.0299988;1024.03003;30.7299995;28.7821293;1.44402444;4.71348524;28.4752426;1.34526587;0.384361655;0.768723309;0.288271248;0.096090414;0.288271248;0.768723309;0.384361655;0.192180827;0.096090414;0.096090414;0;0;0;0;0;4.66666651;5.66666651;6.33333349;7.33333349;5.19279766;2.00409603
60.773786;1625821645;1;41.9502856;12.534693;95.69;0.061515279;-0.037520651;-0.282807052;31.7000008;0;0;0;0;0;1936.56006;47.0299988;1024.03003;30.7299995;28.7821293;1.65561283;4.60351801;39.0393105;1.62038505;0.571900606;0.667217374;0.571900606;0.095316768;0.571900606;0.285950303;0.190633535;0.285950303;0.285950303;0.095316768;0;0;0;0;0;4.33333349;6.33333349;7.66666651;9.66666698;5.23455572;2.00424528
62.797867;1625821647;1;41.9503866;12.5347648;95.54;0.040504012;-0.056395773;-0.167254403;31.6900005;0;0;0.200000003;0.134814546;0;1892.81006;47.2799988;1024.02002;30.7299995;28.7633781;1.78271997;4.50660181;48.5886726;1.71332967;0.951849818;0.380739927;0.571109891;0.761479855;0.285554945;0.571109891;0.190369964;0;0.190369964;0;0;0;0;0.095184982;0;4.66666651;5.66666651;6.66666651;9.33333302;5.24180317;2.00424528
64.820049;1625821649;1;41.9504703;12.5347961;95.3;-0.01784016;-0.038932279;0.376298249;31.6900005;0;0;0;0;0;1892.81006;47.2799988;1024.02002;30.7299995;28.8196297;1.71649301;4.05535078;8.25168228;1.7384603;0.676067889;0.482905656;0.965811312;0.193162262;0.386324525;0.386324525;0.193162262;0.096581131;0;0;0;0;0;0;0;5.33333349;6.66666651;6.66666651;9.33333302;5.16977072;2.00279474
66.843449;1625821651;1;41.9504679;12.5348777;95.24;-0.034975544;0.018007953;0.847680688;31.6900005;0;0;0.200000003;0.13356857;0.200000003;1850.15002;47.2799988;1024.02002;30.7299995;28.8758812;1.33758259;2.93052435;48.5483131;1.8255614;0.288246542;0.480410904;0.384328723;0.096082181;0.288246542;0.096082181;0.192164361;0;0.192164361;0.096082181;0.096082181;0;0;0;0;4.33333349;6.33333349;7;11.333333;5.19246864;2.00439477
68.871916;1625821653;1;41.9504403;12.5350327;95.78;-0.019501617;0.053108841;0.859125733;31.7000008;0;0;0;0;0;1892.81006;47.2799988;1024.02002;30.7299995;28.8571301;1.30191898;2.53582263;3.45917511;1.26867962;0.487953693;0.487953693;0.487953693;0.195181474;0.292772233;0.097590737;0.097590737;0;0;0;0;0;0;0;0;5.66666651;6.66666651;7.33333349;8.33333302;5.11656046;2.00268793
70.89421;1625821655;1;41.9503999;12.5351666;95.58;0.016588053;0.038694527;0.756846786;31.7000008;0;0.200000003;0.200000003;0.134648412;0;1892.81006;47.2799988;1024.02002;30.7299995;28.8571301;1.79893994;5.17221975;21.5098057;1.06915712;0.680372715;0.971961021;0.777568817;0.291588306;0.194392204;0.291588306;0.583176613;0.291588306;0.097196102;0;0;0;0;0;0;4.66666651;7;7;9;5.13372517;2.00409603
72.916487;1625821657;1;41.9503711;12.5352787;95.05;0.04492002;0.017831627;0.688312471;31.7199993;0;0;0;0;0;1892.81006;47.8499985;1024.02002;30.75;28.8383808;0.981998801;3.82031012;84.6839752;0.977000058;0.293100029;0.390800029;0.293100029;0.097700007;0.488500029;0.683900058;0.195400015;0.195400015;0.097700007;0.097700007;0.097700007;0.097700007;0;0;0;5.33333349;6.66666651;7.33333349;8.66666698;5.10697556;2.0042026
74.938567;1625821659;1;41.950335;12.5354027;94.77;0.038946521;-0.005206325;1.01706278;31.7199993;0;0;0.200000003;0.134897605;0;1892.81006;47.8499985;1024.02002;30.75;28.8383808;1.31920707;2.39561081;28.561039;1.87096131;0.492358238;0.295414954;0.295414954;0.196943298;0.098471649;0.196943298;0;0.098471649;0;0;0.098471649;0;0;0;0;5.33333349;6.33333349;6.33333349;0;5.06636286;2.00443745
76.96027;1625821661;1;41.9502659;12.5354594;94.75;-0.012648428;0.033388685;1.67006135;31.7199993;0;0;0;0;0;1810.15002;47.8499985;1024.01001;30.75;28.8571301;1.66545713;3.67867017;12.2746553;1.66784465;0.588651061;0.686759591;0.490542561;0.19621703;0.19621703;0.490542561;0;0.098108515;0.098108515;0;0;0;0;0;0;4.66666651;6.33333349;6.66666651;0;5.0855484;2.00426674
78.983743;1625821663;1;41.9501667;12.5354356;95.4;-0.068391532;0.089283638;1.96874964;31.7199993;0;0;0.200000003;0.134565353;0;1892.81006;47.8499985;1024.01001;30.75;28.8383808;1.56095088;2.96851325;16.491024;2.06538844;0.491759121;0.491759121;0.393407315;0.098351829;0.295055479;0.098351829;0;0.098351829;0.196703658;0;0;0;0;0;0;5;6;9.33333302;0;5.07350731;2.00405335
81.005668;1625821665;1;41.9500405;12.5353845;95.41;-0.08221408;0.081745781;1.90824687;31.7199993;0;0.200000003;0;0;0;1892.81006;48.3199997;1024.01001;30.7700005;28.8758812;1.41503811;3.49492145;16.6478348;1.96197546;0.392395109;0.392395109;0.294296324;0.392395109;0.294296324;0.392395109;0.196197554;0;0.196197554;0;0;0;0;0;0;4.66666651;5.33333349;6.66666651;10.333333;5.08626986;2.00418139
83.027601;1625821667;1;41.9499143;12.5353289;95.38;-0.036158845;0.048117105;1.8629216;31.7199993;0;0.200000003;0.200000003;0.134897605;0;1850.15002;48.3199997;1024.01001;30.7700005;28.8758812;1.50948966;2.5920794;34.8688354;1.3890537;0.694526851;0.595308721;0.496090591;0;0.099218123;0;0;0;0.198436245;0.198436245;0;0;0;0;0;5.33333349;6;7.66666651;0;5.03381777;2.00221872
85.051372;1625821669;1;41.9497494;12.5352604;95.02;0.025131868;0.024772685;1.8132962;31.7199993;0;0;0;0;0;1892.81006;48.3199997;1024.01001;30.7700005;28.8758812;1.5341022;3.48628497;18.4384995;1.4712882;0.588515282;0.686601162;0.294257641;0.09808588;0.294257641;0.196171761;0.196171761;0.09808588;0.196171761;0;0;0;0;0;0;4.33333349;6.66666651;8;9.66666698;5.08731794;2.0040319
87.075428;1625821671;1;41.9496048;12.5352052;94.78;0.029225566;0.029360222;1.76714563;31.7399998;0;0;0.200000003;0.132987112;0;1892.81006;48.3199997;1024.01001;30.7700005;28.8758812;1.42174101;2.77282047;5.43809032;1.34180915;0.862591624;0.383374065;0.191687033;0.287530541;0.191687033;0.287530541;0;0.095843516;0;0;0;0;0;0;0;4;6.66666651;6.33333349;0;5.20617485;2.00409603
89.097303;1625821673;1;41.949429;12.5351328;94.55;0.036456399;0.013356534;1.72196877;31.7399998;0;0;0;0;0;1892.81006;48.3199997;1024.01001;30.7700005;28.9133816;1.31395876;2.68129706;3.64283919;0.95216924;0.47608462;0.76173538;0.190433845;0;0.57130152;0.095216923;0.095216923;0;0;0;0;0;0;0;0;4.33333349;6;7;9;5.24060249;2.0040319
91.120047;1625821675;1;41.9492625;12.5350591;94.34;0.042903405;0.000844875;1.67973816;31.7299995;0;0;0.200000003;0.134150028;0;1850.15002;48.1300011;1024.03003;30.7999992;28.9321327;1.37385702;2.49180603;3.46916389;1.50264037;0.563490152;0.469575107;0.281745076;0.375660092;0;0.187830046;0.093915023;0;0;0;0;0;0;0;0;4;5.33333349;0;8.33333302;5.31313753;2.00407457
93.142086;1625821677;1;41.9491191;12.5350048;94.33;0.068447821;-0.024382312;1.64974761;31.7299995;0;0;0.400000006;0;0;1850.15002;48.1300011;1024.03003;30.7999992;28.9696331;1.21271873;2.18505359;2.54610848;0.75168252;0.56376189;0.657722175;0.281880945;0.093960315;0.093960315;0.18792063;0;0;0;0;0;0;0;0;0;4.66666651;6;7.66666651;0;5.31063271;2.00405335
95.165195;1625821679;1;41.9489559;12.5349228;93.95;0.073230527;-0.029461032;1.60781038;31.7299995;0;0.200000003;0.200000003;0;0;1892.81006;48.1300011;1024.02002;30.7999992;28.9696331;1.75953531;3.53335023;4.78972387;1.80132806;0.758453906;0.568840444;0.474033713;0.379226953;0.379226953;0.284420222;0.094806738;0;0;0;0;0;0;0;0;5;5.66666651;7;7.66666651;5.2632761;2.0040319
97.188586;1625821681;1;41.9488153;12.5348547;93.62;0.061236523;-0.045409717;1.56782949;31.7299995;0;0.200000003;0;0;0.200000003;1850.15002;48.1300011;1024.02002;30.7999992;28.9883842;1.09497714;2.25477481;2.82749081;0.847378135;0.564918756;0.47076565;0.094153129;0.188306257;0.282459378;0.282459378;0;0;0;0;0;0;0;0;0;4.33333349;6.33333349;6.66666651;0;5.2995882;2.00411725
99.21362;1625821683;1;41.9487137;12.5347912;92.65;0.073973715;-0.206280157;1.74627924;31.7299995;0;0;0.200000003;0.134648412;0;1892.81006;48.1300011;1024.03003;30.7999992;28.9883842;1.919541;3.79148316;12.807827;1.97791362;0.847677231;0.6593045;0.470931798;0.376745433;0.094186358;0.188372716;0.188372716;0.094186358;0.094186358;0;0;0;0;0;0;4.66666651;5.66666651;6.33333349;8;5.29777431;2.00409603
101.236497;1625821685;1;41.9486889;12.5347273;92.65;-0.072537422;-0.130019829;2.68905282;31.7299995;0;0;0;0;0.200000003;1850.15002;48.1300011;1024.03003;30.7999992;28.9883842;2.06301165;3.6909678;5.51244211;2.09688687;1.04844344;0.762504339;0.095313042;0.190626085;0.190626085;0.285939127;0.190626085;0;0;0;0;0;0;0;0;5;6.33333349;6.66666651;10;5.23782635;2.00307202
103.259367;1625821687;1;41.9487161;12.5346257;92.65;-0.060735736;-0.0299407;2.89710307;31.7299995;0;0;0.200000003;0.135146812;0.200000003;1936.56006;48.1300011;1024.03003;30.7999992;28.9696331;1.52674508;2.8358016;9.41400814;2.01343036;0.671143472;0.38351056;0.19175528;0.19175528;0.09587764;0.287632912;0.09587764;0;0.09587764;0;0;0;0;0;0;5;6.33333349;7.66666651;11;5.20426655;2.00411725
105.283269;1625821689;1;41.9487553;12.5344852;92.65;-0.040148597;-0.02182631;2.82729697;31.75;0;0.200000003;0;0;0.200000003;1892.81006;48.1300011;1024.54004;30.7999992;28.9696331;1.46141458;2.84315848;4.38630342;1.72349012;0.574496686;0.382997811;0.574496686;0.191498905;0.287248343;0.095749453;0.191498905;0;0;0;0;0;0;0;0;4.66666651;6;7.33333349;8;5.21156693;2.00398922
107.305974;1625821691;1;41.9488031;12.5343618;92.65;-0.000510101;-0.018769041;2.77116013;31.75;0;0;0.200000003;0.135396004;0.200000003;1850.15002;48.1300011;1024.54004;30.7999992;28.9696331;1.55547798;2.65145063;3.02503562;1.33823729;0.764707029;0.573530257;0.573530257;0.095588379;0.095588379;0.191176757;0;0;0;0;0;0;0;0;0;4.66666651;5.66666651;8.33333302;0;5.22018194;2.00405335
109.328688;1625821693;1;41.9488436;12.5342301;93.98;0.044037458;-0.06348107;2.6518662;31.75;0;0;0;0;0.200000003;1850.15002;48.25;1024.54004;30.7999992;28.9883842;1.48062813;2.44472384;13.339695;2.29193306;0.477486044;0.381988823;0.095497206;0;0.477486044;0;0.095497206;0;0;0.095497206;0;0;0;0;0;4.66666651;5.66666651;7.33333349;11.666667;5.22516537;2.00405335
