{
    "autonomous": true,                                   
    "type": "car",                                       
    "dateVehicle": "2020-04-03",
    "speed": 45,                                            
    "lat": 41.5,                                            
    "lon": 12.3,                                            
    "altitude": 260,                                        
    "heading": 95,   
    "battery": {                                            
        "autonomyKm": 40.0,                            		
        "autonomyTime": 0.0,                           		
        "avgConsumption": 0.18,                     		
        "consumption": 0.18,                          		
        "batteryLevel": 6                            		
    },
    "vehicleId": { 
        "idVehicle": 1,
        "name": "ZZ000AA"
    }, 
    "roadDefects": {                                       
        "image": "MIME encoding",							
        "imageType": "string",								
        "width": 1024,
        "height": 768,									
        "roadDefectsData": [
            {												
                "type": "manhole",							
                "reliability": 0.86							
            },
            {
                "type": "manhole",
                "reliability": 0.86
            } 
        ]
    },
    "environment": {
        "dateTimeEnv": "2020-04-03",
        "envData": [                                             
            {
                "name": "CO",                                     
                "val": 12.3,                                      
                "unit": "ppm"                                     
            },
            {
                "name": "CO2",
                "val": 680,
                "unit": "ppm"
            }
        ]
    },
    "route": {												
        "destination": "Via Angelo Emo 1234",
        "distance": 0.417,							
        "eta": 55, 
        "waypArray": [ 
            { 
                "idWayp": 1,
                "lat": 42.6333,
                "lon": 12.7773   
            },
            { 
                "idWayp": 2,
                "lat": 42.1133,
                "lon": 12.7632   
            }
        ]
    },
    "alarmVehicle": {												
        "idAlarm": 3,										
        "description": "road defect"								
    },
    "message": {											
        "idMsg": 2,										
        "content": "sono nel traffico"									
    }
}